
#0090
<MNA
<CMU0008
<FAI0000
<END

#0091
<MNA
<CMU0008
<FAI0001
<END

#0092
<MNA
<CMU0008
<FAI0002
<END

#0093
<MNA
<CMU0008
<FAI0003
<END

#0094
<MNA
<CMU0008
<FAI0004
<END





#0100
<FLJ0361:0103

<FLJ0362:0101

<FLJ0360:0102

<KEY
<SOU0011
<ANP0100:0000:0002

<FAO0004
<TRA0011:0094:0042:0052

#0101
<PRI
<MSG
ken ala open!
<NOD
<END

#0102
<KEY
<FAO0004
<TRA0011:0094:0042:0052

#0103
<PRI
<MSG
ken ala tawa weka!
<NOD
<END


#0150
#0151
#0152
#0153
#0154

#0290
<FLJ0370:0291
<END

#0291
<FLJ0360:0000
<PRI
<MSG
<FAC0008
sina a!!
<NOD
<DNP0290
<CNP1000:0063:0002
<END


#0400
<KEY
<FL-0361
<FL-0362

<SMC
<CNP0400:0012:0000
<ANP0400:0020:0004
<WAI0140

<PRI
<MSG
<FAC0005
pakala!
<NOD
<FAC0000
<KEY
<CLO

<WAI0100
<CMU0015

<MSG

anpa e leko Paluloku!
<WAI0140
<NOD

<SOU0045
<CNP0150:0001:0000
<WAI0004

<SOU0045
<CNP0151:0001:0000
<WAI0004

<SOU0045
<CNP0152:0001:0000
<WAI0004

<SOU0045
<CNP0153:0001:0000
<WAI0004

<SOU0045
<CNP0154:0001:0000

<CMU0008
<END


#0500

#1000
<KEY
<FL+0360
<FL+0361
<FL+0440
<FL-0326
<MSG
pakala!
<NOD
<CLR
o awen e mi,
o awen e mi!
<NOD
<CLR
.....
<NOD
seme?
<NOD
<MYB0002
<WAI0030
<MYD0002
<CNP1000:0060:0004
<CLR
<FAC0006
sina...sina ala
tan jan Tokuta?
<NOD
<CLR
a, mi pakala!
<NOD

tenpo pini la, 
mi monsuta lili.
jan Tokuta li ike suli.
<NOD

ona li kama ma mi mute,
li lanpan jan e mi,
<NOD

li moli e mi.
<NOD
<CLR
mije sama mi li
nasin sama. ona li
moli e mije sama mi.
<NOD
<CLR
a!
<NOD

ijo mani Loketo!
<GIT1004
<NOD
<CLR
mi la, sina kama jo
e ni anu seme?
<NOD
<CLR
soweli Su li pana
e ni tawa mi!
<NOD
<CLR
.....
<NOD
<CLR
taso... mi pilin e ni:
mi wile ala jo e ni.
<NOD

<GIT0000
soweli Kinku li lukin e
mi poka pona soweli Su la,
kute ona li kama loje...
<NOD

sina ken awen jo e ni.
<NOD
<CLO

<FAC0000
<CMU0000

<QUA0030
<SOU0026

<ANP1000:0008:0000

<ANP0100:0001:0000

<WAI0010

<MYD0000

<CNP1000:0060:0000

<WAI0100

<QUA0030
<SOU0026

<ANP1000:0008:0000

<ANP0100:0001:0000

<WAI0070

<QUA0030
<SOU0026

<ANP1000:0008:0000

<CNP0400:0019:0002

<CNP0100:0018:0002

<CMP0004:0008:0080

<CMP0005:0008:0081

<CMP0006:0008:0082

<CMP0004:0009:0096

<CMP0005:0009:0097

<CMP0006:0009:0098



<MSG
mi kama!
<WAI0050
<CNP0400:0012:0002
<ANP0400:0030:0002
<CLR
<KEY
<CMU0011
<FAC0014
sina lon!
<NOD
<CLR
<FAC0005
sina ken ala len!
<NOD

mi jo e nena sinpin
pi soweli alasa!
<NOD
<FAC0000
<CLR
a, lon.
<NOD

<CNP0500:0067:0002
<WAI0100
<ANP0500:0013:0002
<WAI0050
<ANP1000:0008:0000
<MSG
<FAC0015
nena sinpin, en
insa lawa ona kin.
<NOD
<CLR
<FAC0005
jan Misali o!
<NOD
<CLR
alasa ona la,
mi nanpa wan!
<NOD
<CLR
<FAC0008
ona--ona li tan
jan Tokuta a!
<NOD
<CLR
<FAC0015
.....
<NOD
<CLR
<FAC0016
sina jan Su anu seme?
jan Tokuta li
wile e sina.
<NOD

o kama poka a.
<NOD
<CLR
<FAC0006
n...seme?
<NOD
<CLR

mi jan Su ala.
<NOD
<FAC0000
<CLO

<ANP0500:0015:0002
<WAI0110

<PRI
<MSG
<FAC0008
pakala!
<NOD
<FAC0015
<CLR
leko Paluloku o.
<NOD

o pini pali e ni.
<NOD
<CLO

<ANP0500:0020:0002
<FAC0000
<CLO

<KEY
<WAI0050
<MSG
<FAC0008
o awen, sina jo
pakala--!
<NOD
<FAC0000
<CLO

<WAI0050

<FAC0005
<MSG
ike a!
<NOD

tenpo ale la,
mi wile weka e jaki!
<NOD

alasa ona kin la,
mi nanpa wan!
<NOD
<CLR
.....
<NOD
<CLR
nasin sina li seme?
<NOD

sina utala e mi kepeken
ilo ni anu seme?
<YNJ1001
<ANP0400:0030:0002
<CLR

<FAC0014
mi sona e ni!
<NOD
<CLO

<FL+0361
<CMU0004
<CNP0400:0068:0002
<BSL0400
<END


#1001
<KEY
<FL-0362
<FL-0361
<CMU0008
<MSG
<FAC0005
a.
<NOD

o moku e kala pona!
<NOD
<CLO
<ANP0400:0010:0002
<END


