
#0090
<MNA
<CMU0014
<FAI0000
<END

#0091
<MNA
<CMU0014
<FAI0001
<END

#0092
<MNA
<CMU0014
<FAI0002
<END

#0093
<MNA
<CMU0014
<FAI0003
<END

#0094
<FLJ0120:0095
<ANP0200:0010:0002
<EVE0095

#0095
<MNA
<CMU0014
<FAI0004
<END


#0100
<PRI
<SOU0011
<DNP0100
<FAO0004
<TRA0002:0094:0291:0008


#0105
<PRI
<MSG
sina wile awen e lipu anu seme?
<YNJ0000
<SVP
<CLR
lipu li awen.
<NOD
<END

#0106
<PRI
<LI+1000
<SOU0020
<AE+
<MSG
kama jo e pona sijelo.
<NOD
<END



#0110
<KEY
<MSG
sina pilin e kon tawa
lete kama insa...
<NOD
<END



#0200
<FLJ0120:0210

<KEY

<FL+0120
<FL+0105
<FL+0154
<FL+0155
<FL+0329
<FL+0106

<MSG
...mu
<NOD
<CLO

<MYB0002
<WAI0050
<MYD0002

<MSG
n n n...
<NOD
<ANP0200:0011:0002
<CLR
<FAC0003
o!
o! mi moli ala!
<NOD

mi pakala e sina!!
<NOD
<FAC0000
<CLO

<WAI0050
<ANP0200:0000:0002

<MSG
<FAC0001
seme??
<WAI0050
<NOD

monsuta ni li anpa
e mi...
<ANP0200:0000:0000
<NOD
<CLR
.....
<NOD

sina awen e mi
anu seme?
<YNJ0202
<EVE0201

#0201
<FAC0003
mi wile ala e pona sina!
<NOD
<CLR
mi wan taso li
ken anpa e ona!
<NOD

ike! ma ni en soweli
ale lon ona la,
mi pilin ike!
<NOD
<FAC0000
<CLO
<EVE0203

#0202
<FAC0002
n n n...
<NOD
<CLR
ni li suli ala.
<NOD
<FAC0000
<CLO
<EVE0203

#0203
<WAI0050
<MSG
<ANP0200:0005:0002
<FAC0001
a!
<NOD
<MYD0003
<CLR
o lukin! ona li...
ona li sike nanpa 00!
<NOD
<CLR
sike akesi ni la,
mi ken tawa weka tan
ma ni!
<NOD
<CLO
<FAC0000
<MYD0002

<ANP0200:0003:0002
<WAI0030

<ANP0200:0005:0002
<WAI0050

<MSG
<FAC0001
sike akesi sin: pona!
pona a!
<NOD
<CLO
<WAI0050
<SOU0043
<WAI0020
<FAC0000

<MSG
<FAC0002
seme?
<NOD
 nimi nasa?
<NOD
<FAC0000
<CLO

<WAI0050

<ANP0200:0000:0000
<WAI0050

<MSG
<FAC0001
sina jo e nimi nasa la,
sina ken open e
sike ni.
<NOD
<CLR
<FAC0002
o, pakala.
<NOD
<CLR
mije sama mi li lon la,
ona li pona e ni.
<NOD
<CLR
.....
<NOD
<CLR
<FAC0001
tan ni la, mi pini.
<NOD
<CLO

<ANP0200:0003:0000
<WAI0126

<ANP0200:0000:0002
<WAI0020

<MSG
sina
<MYD0000
 tan ma ni
anu seme?
<NOD
<CLR
lukin la, ni li ala.
<NOD

nimi lon len lawa
sina la...
<NOD

toki li ala tan ma ni.
<NOD
<CLR

...kin la, sina sona
ala e ma ni anu seme?
<NOD
<CLR
a.
<NOD

sina ken poka mi
li ken tawa.
<NOD

mi mute li ken tawa weka
tan ma ni.
<NOD

taso, sina wile
pona tawa mi.
<NOD
<CLO

<ANP0200:0005:0002
<WAI0020

<SOU0011
<ANP0100:0000:0002
<WAI0020

<ANP0100:0000:0000
<DNP0200
<SOU0023
<END


#0300
<KEY
<MSG
<TUR
sike akesi sin nanpa 00.
sike li ken kama akesi sewi.
<NOD
<CLR

o pana e nimi nasa:
<NOD
<END

#0300
<PRI
<FAO0004
<TRA0001:0094:0005:0007



#0400

