
#0090
<MNA
<CMU0019
<FAI0000
<END

#0091
<MNA
<CMU0019
<FAI0001
<END

#0092
<MNA
<CMU0019
<FAI0002
<END

#0093
<MNA
<CMU0019
<FAI0003
<END

#0094
<MNA
<CMU0019
<FAI0004
<END


#0100
<PRI
<FAO0002
<TRA0009:0092:0012:0064


#0101
<PRI
<FAO0001
<TRA0039:0091:0004:0016


#0200
<PRI
<MSG
jan ilo pakala.
<NOD
<END


