
#0090
<MNA
<CMU0014
<FAI0000
<END

#0091
<MNA
<CMU0014
<FAI0001
<END

#0092
<MNA
<CMU0014
<FAI0002
<END

#0093
<MNA
<CMU0014
<FAI0003
<END

#0094
<MNA
<CMU0014
<FAI0004
<END

#0095
<FAI0001
<END


#0100
<KEY
<ANP0100:0000:0002
<SOU0011

<FAO0004
<CSS
<TRA0048:0094:0153:0016


#0200
<KEY

<FLJ1441:0203

<FLJ1440:0202

<FLJ0835:0201

<MSG
<TUR
nimi li suno e sinpin.
<NOD
<CLR

04-08-08
meli mi li pana e jan lili.
<NOD
<END


#0201
<KEY
<MSG
nimi li suno e sinpin.
<NOD
<CLR

<TUR
sina wile lape anu seme?
<NOD
<END


#0202
<KEY
<FL+1445
<MSG
nimi li suno e sinpin.
<NOD
<CLR
<TUR
mi kama sona la, mi
sitelen sona lon lipu ni...
<NOD
<END


#0203
<KEY
<MSG
nimi li suno e sinpin.
<NOD
<CLR

<TUR
o utala pona
<NOD
<END


#0210

#0220
<KEY
<MSG
ijo suli li lon ala...
<NOD
<END

#0221
<KEY
<MSG
lipu majuna li lon...
<NOD
<FLJ1441:0223
<FLJ1445:0222
<END

#0222
<KEY
<MSG

sina wile open e ona anu seme?
<YNJ0000
<FL+1441
<CLR
<TUR
jan ilo tan ma anpa li ken pali
lon anpa telo kepeken tenpo lili.
<NOD
<CLR
taso, tenpo telo li suli la,
insa ona li kama wawa ala,
li lili e pakala.
<NOD
<CLR
sitelen kama la, sina ken
kama sona e nasin misikeke
pi jan ilo telo.
<NOD
<CLR
<MSG

.
<WAI0010
.
<WAI0010
.
<WAI0010
.
<WAI0010
.
<WAI0010
.
<WAI0010
.
<WAI0010
.
<WAI0010
<NOD
<CLR
<CMU0010
kama sona e nasin misikeke
pi jan ilo telo!
<WAI0160
<NOD
<RMU
<CLR
<TUR
sina li weka e telo tan
jan ilo la, insa ona li
open wawa sin.
<WAI0030
<NOD
<END

#0223
<KEY
<MSG
ijo suli ante li lon ala...
<NOD
<END


#0250
<KEY

<FLJ1444:0257

<FLJ1443:0255

<FLJ1442:0254

<FLJ1441:0253

<FLJ1440:0252

<FLJ0836:0251
<EVE0019

#0251
<KEY
<MSG

sina wile lape anu seme?
<YNJ0000
<FAO0004
<CMU0000
<WAI0020
<CLR

.....
<NOD
<CLO

<WAI0100
<LI+1000

<DNP0210
<FL-0836
<FL+1440
<MYD0002
<RMU

<TRA0073:0095:0012:0009

#0252
<KEY
<MSG
ona li tawa ala.
lukin la ona li moli ala.
<NOD
<END

#0253
<KEY
<MSG
sina wile weka e telo tan
jan Kali anu seme?
<YNJ0000
<CLO

<FL+1442
<FAO0001
<CMU0000
<WAI0200
<FAI0001

<WAI0150
<MSG
<FAC0020

n n n...
<NOD
<CLR
<CMU0014
<FAC0025
.....
<NOD
<CLR
<ANP0260:0001:0002
<FAC0019
sina moli ala!
<NOD
<CLR
a, ale li pona...
<NOD
<CLR
<FAC0025
mi pilin e ni:
mi tu li moli.
<NOD

sina kama lape la,
mi sona ala e
nasin pona ante...
<NOD
<CLR
poki kon mi la.
<NOD

...ona li pona tawa sina.
<NOD
<CLR

<FAC0020
n n n...
<NOD
<CLO
<FAC0000
<ANP0260:0001:0000

<WAI0050

<MSG
ona li lape.
<NOD

<END

#0254
<KEY
<MSG
lukin la, ona li ken
open wawa kepeken tenpo.
<NOD
<FL+1443
<END

#0255
<KEY
<MSG

sina wile weka tan ona
anu seme?
<YNJ0256
<END

#0256
<KEY
<CNP0260:0259:0000
<FL+0836
<FL-1440
<FL+1444
<END

#0257
<KEY
<MSG
telo mute li lon supa lape.
<NOD
<END


#0260

