
#0090
<MNA
<CMU0005
<FAI0000
<END

#0091
<MNA
<CMU0005
<FAI0001
<END

#0092
<MNA
<CMU0005
<FAI0002
<END

#0093
<MNA
<CMU0005
<FAI0003
<END

#0094
<MNA
<CMU0005
<FAI0004
<END


#0098
<KEY
<MNA
<CMU0005
<FL+0224

<ANP0100:0001:0000
<FAI0004

<CNP0401:0112:0002
<WAI0100

<ANP0100:0000:0000

<MYD0002
<SMC
<DNP0401
<END



#0099
<KEY
<MNA
<CMU0005

<ANP0099:0010:0000

<FAI0004
<WAI0070

<ANP0099:0000:0000
<WAI0030
<END



#0100
<KEY
<MSG
sina wile tawa tomo pi
soweli Asa anu seme?
<FL-0227
<YNJ0000
<CLO

<CNP0400:0111:0002
<HMC
<WAI0060
<ANP0100:0001:0000

<WAI0100
<FAO0004
<FLJ0219:0130
<TRA0001:0099:0005:0008


#0101
<PRI
<FL-0227
<FLJ0212:0102
<MSG
ken ala open.
wile kepeken e ijo open.
<NOD
<END

#0102
<PRI
<SOU0011
<DNP0101
<FAO0004
<TRA0007:0094:0015:0008

#0103
<PRI
<SOU0011
<DNP0103
<FAO0004
<TRA0008:0094:0009:0011


#0104
<PRI

<FLJ0214:0106

<ITJ0009:0105

<MSG
ken ala open.
wile kepeken e ijo open.
<NOD
<END

#0105
<SOU0022
<MSG
<GIT1009
kepeken e =ijo open loje=.
<NOD
<CLO

<GIT0000
<FL+0214
<EVE0106

#0106
<PRI
<SOU0011
<DNP0104
<FAO0004
<TRA0025:0094:0016:0007



#0107
<PRI
<SOU0011
<DNP0107
<FAO0004
<TRA0026:0094:0010:0007

#0108
<PRI
<SOU0011
<DNP0108
<FAO0004
<TRA0027:0094:0010:0009



#0109
<PRI

<FLJ0222:0111

<ITJ0010:0110

<MSG
ken ala open.
wile kepeken e ijo open.
<NOD

nimi "Ko" li lon sinpin lupa.
<NOD
<END

#0110
<SOU0022
<MSG
<GIT1010
kepeken e =ijo open Ko=.
<NOD
<CLO

<GIT0000
<FL+0222
<EVE0111

#0111
<PRI
<SOU0011
<DNP0109
<FAO0004
<TRA0028:0094:0006:0013


#0112
<PRI
<FAO0004
<TRA0018:0094:0006:0010


#0113
<PRI
<SOU0011
<DNP0113
<FAO0004
<TRA0030:0094:0007:0009




#0121
<PRI
<MSG
<TUR

        tomo pi soweli Santa
<NOD
<END

#0123
<PRI
<MSG
<TUR

         tomo pi wawa sike
<NOD
<END


#0130
<KEY
<FL-0329
<FL-0219
<MYD0002
<TRA0011:0420:0024:0029




#0200
<PRI
<DNP0200
<FL+0210

<CMU0010
<GIT1003
<IT+0003
<MSG

kama jo e
=ijo open tomo pi soweli Santa=!
<WAI0160
<NOD
<CLO

<GIT0000
<RMU
<END


#0201
<PRI
<FLJ0228:0207
<FL+0228
<MSG
o.
<NOD
<CLR
sina jan utala tan ma weka
anu seme?
<NOD

mi sona e ni:
utala suli li pini.
<NOD
<CLR
n n n, ni li suli ala.
<NOD
<CLO
<EVE0207



#0202
<ITJ0008:0204
<NCJ0094:0203

<PRI
<SOU0022
<CNP0202:0021:0000

<MSG
poki li open.
<NOD
<GIT1008
<IT+0008
<CLR

<CMU0010
kama jo e
=telo pi kala nasa ko=!
<WAI0160
<NOD
<DNP0202
<RMU
<END

#0203
<SOU0072
<CNP0202:0015:0002
<END

#0204
<CNP0202:0001:0000
<END


#0205
<FLJ0481:0206

<PRI
<MSG
ilo pi kon tawa li tawa ala.
<NOD

jan li kipisi e linja,
li weka e wawa sike.
<NOD

sina wile pona e ilo
la, sina wile alasa
e tomo pi wawa sike.
<NOD
<END

#0206
<PRI
<MSG
mi pana e sona tawa sina.
<NOD
<CLR
ilo pi kon tawa li tawa e
sina la, o luka e nena
kepeken tenpo.
<NOD

sina tawa sewi sewi.
<NOD
<END


#0207
<PRI
<MSG
sina tawa la, o lukin.
soweli Pawa Kulita li lon.
<NOD

ona li tawa anpa lon sina la,
sina pakala mute.
<NOD
<END


#0210
<PRI
<MSG
ilo tawa pi jan Kasuma.
ona li pakala a.
<NOD
<END


#0220
<ITJ0013:0250

<FLJ0221:0240

<FLJ0484:0239

<FLJ0215:0234

<PRI
<MSG
ken ala open...
<NOD
<CLO

<CNP0230:0106:0000
<MYD0002
<END

#0230
<FLJ0221:0237

<FLJ0484:0236

<FLJ0223:0235

<FLJ0216:0233

<FLJ0215:0232

<PRI
<MSG
sina lukin e jan kepeken
lupa lili...
<NOD
<CLR

o! o lukin!
<NOD
<CLR
sina lukin sama mije suwi.
<NOD

tomo li ken ala tawa e mi.
mi wile tawa. sina ken
ala ken pona tawa mi? 
<YNJ0231
<CLR
sina pona a!
<NOD
<CLR
o kama jo e ni.
<NOD
<GIT1009
<IT+0009
<FL+0215
<CLR

<CMU0010
kama jo e =ijo open loje=.
<WAI0160
<NOD
<RMU
<CLR
supa anpa la, ni li lon.
<NOD

o kepeken e ni.
o open e sinpin lupa.
<NOD
<END

#0231
<PRI
<MSG
seme?...
<NOD

pakala...
<NOD
<END

#0232
<PRI
<MSG
o pona tawa mi...
<NOD

o open e sinpin lupa...
<NOD
<END

#0233
<PRI
<MSG
seme?
<NOD
tomo ni la, ijo open
ni li sama ala?
<NOD

pakala a...
<NOD
<CLR
.....
<NOD
<FL+0223
<EVE0235


#0234
<PRI
<FL+0216
<MSG
lupa pi ijo open li lon ala.
<NOD

ken la, pakala loje li
taki pini e sinpin lupa.
<NOD
<END

#0235
<PRI
<MSG
lupa pi ijo open li lon ala
la, mi mute li wile pakala e
sinpin...
<NOD

taso, tan seme la...
<NOD
<END


#0236
<PRI
<MSG
seme? ijo pi wawa pakala?
<NOD
<CLR
a, ni li ken pona...
<NOD

sina alasa e ijo wile
anu seme?
<NOD
<CLR
.....
<NOD
<CLR
sina toki e "ko" anu seme?
<NOD

o awen tenpo lili.
<NOD
<CLO
<WAI0100

<MSG
a, o kama jo e ni.
<NOD
<GIT1010
<IT+0010
<FL+0221
<CLR

<CMU0010
kama jo e =ijo open Ko=.
<WAI0160
<NOD
<RMU
<CLR
sinpin la, ona li lon.
<NOD

nimi "Ko" li lon ona.
<NOD

mi sona e ni: ona li ken pona!
<NOD

mije lili o, mi wile e pona sina!
<NOD
<END

#0237
<PRI
<MSG
o! sina jo ala jo e ijo pi
wawa pakala?
<NOD
<END



#0239
<PRI
<MSG
pakala loje li awen taki
e sinpin lupa...
<NOD
<CLO

<CNP0230:0106:0000
<MYD0002
<END

#0240
<PRI
<MSG
pakala loje li awen taki
e sinpin lupa...
<NOD
<END


#0250
<PRI
<FL+0521
<FL+0522
<IT-0013

<MSG
<GIT1013
pana e =ijo pi wawa pakala=.
<NOD
<CLO

<FAO0004
<TRA0018:0200:0006:0000



#0302
<PRI
<FLJ0218:0001
<FL+0218

<SOU0022
<CNP0302:0021:0000

<MSG
poki li open.
<NOD
<EVE0030


#0305
<PRI
<DNP0305
<SOU0022
<CMU0016

<MSG
<GIT1006
kama jo e
=poki pi sijelo pona=!
<WAI0160
<NOD
<RMU
<ML+0005

nanpa pi sijelo pona
li kama suli luka!
<NOD
<END


#0400
#0401

#0450
<PRI
<MSG
ni li ilo tawa wawa pi
sike tu anu seme?
<NOD
<END

#0451
#0452

#0500
<PRI

<FLJ0211:0501

<FL+0211

<MSG
toki.
<NOD

mi soweli Santa.
<NOD
<CLR
tenpo pini poka la, mi tawa,
li kama jo e telo. taso,
monsuta mute li utala e mi.
<NOD

mi tawa weka, li tawa tomo.
taso, ijo open pi tomo mi li
weka lon ma.
<NOD
<CLR

...tomo mi la, mi ken ala
tawa insa.
<NOD
<END

#0501
<PRI
<MSG
ijo open pi tomo mi li weka
la, mi ken ala tawa insa
tomo mi...
<NOD

pakala...
<NOD
<END



#0502
<ITJ0003:0503
<END

#0503
<KEY
<FL+0212
<MM0
<MYD0000
<WAI0030
<PRI

<MSG
a!
<NOD
<CLR
ni li ijo open pi tomo mi!
<NOD
<IT-0003
<GIT1003
<CLR

pana e
=ijo open tomo pi soweli Santa=.
<NOD
<GIT0000
<CLR
sina pona tawa mi!
mi ken tawa insa tomo mi!
<NOD
<CLO

<KEY
<ANP0500:0003:0000
<WAI0176
<ANP0500:0000:0002

<SOU0011
<CNP0101:0000:0000
<WAI0010

<PRI
<MSG
o kama insa.
<NOD

mi wile pana e ilo pona
tawa sina.
<NOD
<CLO
<KEY

<ANP0500:0005:0002
<WAI0010
<DNP0500

<SOU0011
<CNP0101:0018:0000
<DNP0502
<SOU0023
<END


#0600
<KEY
<FL+0219
<CMU0000
<FAI0004
<MYD0002

<MSG
<FAC0010
mije suwi o. o lawa
tawa e mi mute tawa ma
tomo pi soweli Mimika.
<NOD
<CLO
<FAC0000

<ANP0452:0000:0000
<WAI0010

<MSG
<FAC0018
jan Kasuma o.
<NOD
<WAI0010
<ANP0451:0000:0002
<CLR
<FAC0010
seme a?
<NOD
<CLO
<FAC0000

<FAC0000
<WAI0010
<ANP0452:0000:0002
<FON0450:0016
<WAI0050

<MSG
<FAC0018
sina ken ala ken
kepeken e ilo tawa ni?
<NOD
<CLO
<FAC0000

<ANP0451:0003:0002
<WAI0040

<ANP0452:0003:0002
<WAI0040

<ANP0451:0005:0000
<WAI0036

<ANP0452:0000:0000
<WAI0050

<ANP0451:0000:0002

<MSG
<FAC0010
pilin mi la, mi ken.
<NOD
<CLO
<FAC0000

<ANP0451:0005:0000

<ANP0452:0005:0000
<WAI0020

<ANP0450:0010:0000
<DNP0451
<DNP0452
<WAI0030

<ANP0450:0020:0000
<WAI0060
<FOM0016
<MYB0000

<WAI0200
<MSG
ken taso tawa aaaaa!
<WAI0050
<NOD
<CMU0005

<DNP0450
<FL-0523
<FL+0225
<END



#1200
<KEY
<ANP1200:0020:0002

<FON1200:0016
<FAI0001

<WAI0100
<FAO0001
<TRA0010:1200:0050:0034


